com/disney/studios/dao/DogBreedDAO$2.class
com/disney/studios/dao/DogBreedDAO.class
com/disney/studios/service/rs/IDogBreedController.class
com/disney/studios/dto/DogBreed.class
com/disney/studios/dao/IDogBreedDAO.class
com/disney/studios/JerseyConfig.class
com/disney/studios/errors/ErrorCode.class
com/disney/studios/service/IDogBreedService.class
com/disney/studios/service/DogBreedService.class
com/disney/studios/PetLoader.class
com/disney/studios/Application.class
com/disney/studios/errors/ErrorCodes.class
com/disney/studios/service/rs/DogBreedController.class
com/disney/studios/dao/DogBreedDAO$1.class
com/disney/studios/dto/DogImage.class
